{
  "info": {
    "_postman_id": "6124fbfe-ce52-4753-a1e2-b6ca137e0be5",
    "name": "Testing Jenkins On Demand Trigger",
    "schema": "https://schema.getpostman.com/json/collection/v2.0.0/collection.json"
  },
  "item": [
    {
      "name": "On demand trigger",
      "event": [
        {
          "listen": "test",
          "script": {
            "id": "e30585db-4b86-450f-85e6-304438e37139",
            "exec": [
              "pm.test(\"Status code is 200\", function () {",
              "    pm.response.to.have.status(200);",
              "});",
              "pm.test(\"Status code is 200\", function () {",
              "    pm.response.to.have.status(400);",
              "});"
            ],
            "type": "text/javascript"
          }
        }
      ],
      "_postman_id": "4901e20d-8751-4728-ab0f-707616ee061b",
      "protocolProfileBehavior": {
        "disableBodyPruning": true
      },
      "request": {
        "method": "GET",
        "header": [],
        "url": "www.google.com"
      },
      "response": []
    }
  ]
}